Count the canreg data. — count_canreg • canregtools
…
An object of 'fbswicd'.

    Examples

library(canregtools)
file <- system.file("extdata", "411721.xls", package = "canregtools")
data <- read_canreg(file)
#> 2200  cases were read from FB sheet.1470  cases were read from SW sheet.
fbsw <- count_canreg(data, cutage_method = "interval")
#> [1] "Processing data: 2200 FBcases."
#> [1] "Processing data: 1470 SWcases."
#> [1] "Processing POP data of year: 2016"
fbsw
#> # A tibble: 208 × 11
#>     year sex   agegrp   icd_cat   fbs   sws    mv    ub   sub   dco    rks
#>    <dbl> <fct> <fct>    <fct>   <int> <int> <int> <int> <int> <int>  <int>
#>  1  2016 男性  0-14 岁  口腔        0     0     0     0     0     0  80846
#>  2  2016 男性  15-39 岁 口腔        1     0     1     0     1     0 180929
#>  3  2016 男性  40-64 岁 口腔        5     2     5     0     3     0 155155
#>  4  2016 男性  65+ 岁   口腔        7     8     7     0     3     0  38723
#>  5  2016 男性  0-14 岁  鼻咽        0     0     0     0     0     0  80846
#>  6  2016 男性  15-39 岁 鼻咽        2     0     2     0     2     0 180929
#>  7  2016 男性  40-64 岁 鼻咽        2     6     2     0     2     0 155155
#>  8  2016 男性  65+ 岁   鼻咽        3     1     3     0     3     0  38723
#>  9  2016 男性  0-14 岁  食管        0     0     0     0     0     0  80846
#> 10  2016 男性  15-39 岁 食管        1     0     1     0     0     0 180929
#> # ℹ 198 more rows
…
