…
> cleanEx()
> nameEx("ls_dict")
> ### * ls_dict
> 
> flush(stderr()); flush(stdout())
> 
> base::assign(".ptime", proc.time(), pos = "CheckExEnv")
> ### Name: ls_dict
> ### Title: list dictionary used in package
> ### Aliases: ls_dict
> 
> ### ** Examples
> 
> ls_dict("registry")
# A tibble: 27 × 2
   areacode value 
   <chr>    <chr> 
 1 410102   410101
 2 410103   410101
 3 410104   410101
 4 410105   410101
 5 410302   410301
 6 410303   410301
 7 410304   410301
 8 410305   410301
 9 410307   410301
10 410402   410401
# ℹ 17 more rows
…
